{
	"name": "donationletter",
	"authors": [
		"Ryan Frame"
	],
	"dependencies": {
		"dmarkdown": "~>0.2.2",
		"painlessjson": "~>1.3.8",
		"tested": "~>0.9.4"
	},
	"description": "Generator for end-of-year donation letters.",
	"copyright": "Copyright © 2017 Ryan Frame",
	"license": "proprietary"
}
